<svg xmlns="http://www.w3.org/2000/svg" width="33.168" height="41.137" viewBox="0 0 33.168 41.137">
  <g id="flag_yellow" transform="translate(-140.125 -656.248)">
    <path id="Union_3" data-name="Union 3" d="M-6077-4052.063l-.376,21.439Zm0-18.937,31,13-31,13Z" transform="translate(6218 4728)" fill="#ff9100" stroke="#ff9100" stroke-width="1"/>
  </g>
</svg>
