<svg xmlns="http://www.w3.org/2000/svg" width="24.707" height="24.707" viewBox="0 0 24.707 24.707">
  <g id="quality" transform="translate(0.149 0.15)">
    <g id="Group_18293" data-name="Group 18293" transform="translate(0.001 4.386)">
      <g id="Group_18292" data-name="Group 18292">
        <path id="Path_7725" data-name="Path 7725" d="M22.978,101.3a2.148,2.148,0,0,0-2.145-2.145H17.647a17.391,17.391,0,0,0,.783-3.295A3.357,3.357,0,0,0,15.112,92a.715.715,0,0,0-.715.715c0,1.727-.993,4.335-2.151,4.916a31.3,31.3,0,0,1-4.38,1.519H.716A.715.715,0,0,0,0,99.865v10.011a.715.715,0,0,0,.715.715H2.861v.715a.715.715,0,0,0,.715.715H6.532a2.148,2.148,0,0,0,1.96-1.276L13.509,112a.717.717,0,0,0,.173.021h4.29a2.145,2.145,0,0,0,1.994-2.935,2.146,2.146,0,0,0,1.43-2.86,2.144,2.144,0,0,0,1.033-3.5A2.137,2.137,0,0,0,22.978,101.3ZM2.861,109.161H1.431v-8.58h1.43Zm4.386.715a.716.716,0,0,1-.715.715H4.291V100.58H7.247Zm9.3-6.435h4.29a.715.715,0,1,1,0,1.43h-4.29a.715.715,0,0,0,0,1.43H19.4a.715.715,0,0,1,0,1.43h-2.86a.715.715,0,1,0,0,1.43h1.43a.715.715,0,1,1,0,1.43h-4.2l-5.093-1.273v-8.91a29.3,29.3,0,0,0,4.21-1.5c1.642-.823,2.648-3.427,2.886-5.363a1.928,1.928,0,0,1,1.242,2.1,11.559,11.559,0,0,1-1.112,3.9.715.715,0,0,0,.64,1.035h4.29a.715.715,0,0,1,0,1.43h-4.29a.715.715,0,0,0,0,1.43Z" transform="translate(-0.001 -92)" fill="#363636" stroke="#f6f6f6" stroke-width="0.3"/>
      </g>
    </g>
    <g id="Group_18295" data-name="Group 18295" transform="translate(15.112)">
      <g id="Group_18294" data-name="Group 18294">
        <path id="Path_7726" data-name="Path 7726" d="M317.715,0A.715.715,0,0,0,317,.715V2.24a.715.715,0,0,0,1.43,0V.715A.715.715,0,0,0,317.715,0Z" transform="translate(-317)" fill="#363636" stroke="#f6f6f6" stroke-width="0.3"/>
      </g>
    </g>
    <g id="Group_18297" data-name="Group 18297" transform="translate(9.55 2.399)">
      <g id="Group_18296" data-name="Group 18296">
        <path id="Path_7727" data-name="Path 7727" d="M202.559,51.548l-1.011-1.011a.715.715,0,0,0-1.011,1.011l1.011,1.011a.715.715,0,0,0,1.011-1.011Z" transform="translate(-200.327 -50.327)" fill="#363636" stroke="#f6f6f6" stroke-width="0.3"/>
      </g>
    </g>
    <g id="Group_18299" data-name="Group 18299" transform="translate(7.247 7.961)">
      <g id="Group_18298" data-name="Group 18298">
        <path id="Path_7728" data-name="Path 7728" d="M154.144,167h-1.43a.715.715,0,1,0,0,1.43h1.43a.715.715,0,1,0,0-1.43Z" transform="translate(-151.999 -167)" fill="#363636" stroke="#f6f6f6" stroke-width="0.3"/>
      </g>
    </g>
    <g id="Group_18301" data-name="Group 18301" transform="translate(21.548 7.961)">
      <g id="Group_18300" data-name="Group 18300">
        <path id="Path_7729" data-name="Path 7729" d="M454.145,167h-1.43a.715.715,0,1,0,0,1.43h1.43a.715.715,0,0,0,0-1.43Z" transform="translate(-452 -167)" fill="#363636" stroke="#f6f6f6" stroke-width="0.3"/>
      </g>
    </g>
    <g id="Group_18303" data-name="Group 18303" transform="translate(19.663 2.399)">
      <g id="Group_18302" data-name="Group 18302">
        <path id="Path_7730" data-name="Path 7730" d="M414.691,50.537a.715.715,0,0,0-1.011,0l-1.011,1.011a.715.715,0,0,0,1.011,1.011l1.011-1.011A.715.715,0,0,0,414.691,50.537Z" transform="translate(-412.459 -50.327)" fill="#363636" stroke="#f6f6f6" stroke-width="0.3"/>
      </g>
    </g>
  </g>
</svg>
