{
  "messages": [],
  "vitalGraphData": {
    "data": {
      "summary": {
        "min": "115.0/115.0",
        "max": "135.0/135.0",
        "mean": "125.0/125.0",
        "unit": "mg/dL",
        "readings": [
          { "val": "135.0/135.0", "type": "Warning" },
          { "val": "115.0/115.0", "type": "Warning" }
        ]
      },
      "data": [
        {
          "date": 1596567600,
          "BSR": 115.0,
          "BSR_min": 115.0,
          "BSR_max": 115.0,
          "BSR_type": "Normal",
          "BSR_predicted": 115.0,
          "BSF_predicted": 115.0
        },
        {
          "date": 1597863600,
          "BSR": 135.0,
          "BSR_min": 135.0,
          "BSR_max": 135.0,
          "BSR_type": "Normal",
          "BSR_predicted": 135.0
        },
        {
          "date": 1596567600,
          "BSF": 115.0,
          "BSF_min": 115.0,
          "BSF_max": 115.0,
          "BSF_type": "Normal"
        },
        {
          "date": 1597863600,
          "BSF": 135.0,
          "BSF_min": 135.0,
          "BSF_max": 135.0,
          "BSF_type": "Normal",
          "BSF_predicted": 135.0
        }
      ],
      "keys": ["BSR", "BSF"],
      "checkpoints": []
    }
  },
  "recent_result": [
    {
      "value": 36.1,
      "date": 1597925596,
      "title": "Temperature",
      "unit": "C",
      "icon": "https://s3.us-east-2.amazonaws.com/pubshare.chi.com/orderables/Temperature.png",
      "key": "TEMP"
    },
    {
      "value": 135.0,
      "date": 1597924849,
      "title": "Blood Glucose",
      "unit": "mg/dL",
      "icon": "https://s3.us-east-2.amazonaws.com/pubshare.chi.com/orderables/Fasting+Blood+Glucose.png",
      "key": "BSR"
    }
  ],
  "patient_info": {
    "title": null,
    "full_name": "Sara Patient",
    "nationality": null,
    "ethnicity": null,
    "language": null,
    "religion": null,
    "country": null,
    "city": null,
    "occupation": null,
    "patient_id": 41,
    "user_id": 99,
    "hospital_no": "CHI-HN-0041",
    "title_id": null,
    "image": null,
    "first_name": "Sara",
    "middle_name": "",
    "last_name": "Patient",
    "extra_name": null,
    "father_name": null,
    "gender": "Female",
    "birth_date": 815295600,
    "nationality_id": null,
    "ethnicity_id": null,
    "language_id": null,
    "system_language_id": "en-US",
    "religion_id": null,
    "country_id": null,
    "city_id": null,
    "mobile_phone": "090078601",
    "landline_phone": null,
    "passport_id": null,
    "nic": "090078601",
    "address_1": null,
    "address_2": null,
    "zip_code": null,
    "height": 167.0,
    "weight": null,
    "blood_group": null,
    "occupation_id": null,
    "emergency_contact_person": null,
    "emergency_contact_phone": null,
    "ssn": null,
    "external_hn": null,
    "other_notes": null,
    "episode_status": "On-boarded",
    "date_added": 1596549505,
    "date_updated": 1596622705,
    "is_deleted": false,
    "delete_comments": null,
    "created_by_id": null,
    "last_edited_by_id": null,
    "first_name_enc": null,
    "middle_name_enc": null,
    "last_name_enc": null,
    "extra_name_enc": null,
    "father_name_enc": null,
    "mobile_phone_enc": null,
    "landline_phone_enc": null,
    "passport_id_enc": null,
    "nic_enc": null,
    "address_1_enc": null,
    "address_2_enc": null,
    "zip_code_enc": null,
    "emergency_contact_person_enc": null,
    "emergency_contact_phone_enc": null,
    "email": "X@123.com",
    "username": "sara1234",
    "password": "<<<encrypted>>>",
    "group_id": 2,
    "group_type": "Patient",
    "site_id": "DDC",
    "rough_age": 25,
    "age": "25 Years",
    "episode_id": 15,
    "onboard_date": 1596605713,
    "episode_active": true,
    "avg_score": 0
  },
  "complianceData": [],
  "allergies": [],
  "diagnoses": ["Hypertension"],
  "surgeries": [],
  "doctor_info": [
    {
      "episode_physician_id": 41,
      "physician_id": 63,
      "physician.full_name": "Usman capitalclinic"
    }
  ],
  "active_medications": []
}
