<svg xmlns="http://www.w3.org/2000/svg" xmlns:xlink="http://www.w3.org/1999/xlink" width="2480" height="3508" viewBox="0 0 2480 3508">
  <defs>
    <filter id="Rectangle_30021" x="25" y="30" width="2432" height="3460" filterUnits="userSpaceOnUse">
      <feOffset dy="3" input="SourceAlpha"/>
      <feGaussianBlur stdDeviation="3" result="blur"/>
      <feFlood flood-opacity="0.161"/>
      <feComposite operator="in" in2="blur"/>
      <feComposite in="SourceGraphic"/>
    </filter>
    <clipPath id="clip-Prescription_Letterhead_Design_2_With_Data_2">
      <rect width="2480" height="3508"/>
    </clipPath>
  </defs>
  <g id="Prescription_Letterhead_Design_2_With_Data_2" data-name="Prescription Letterhead Design 2 (With Data) – 2" clip-path="url(#clip-Prescription_Letterhead_Design_2_With_Data_2)">
    <rect width="2480" height="3508" fill="#fff"/>
    <g id="Group_18086" data-name="Group 18086" transform="translate(0.35 -0.333)">
      <g transform="matrix(1, 0, 0, 1, -0.35, 0.33)" filter="url(#Rectangle_30021)">
        <rect id="Rectangle_30021-2" data-name="Rectangle 30021" width="2414" height="3442" transform="translate(34 36)" fill="#f6f6f6"/>
      </g>
      <line id="Line_256" data-name="Line 256" x2="1483.971" transform="translate(85.113 441.587)" fill="none" stroke="#686868" stroke-width="2"/>
      <line id="Line_258" data-name="Line 258" x2="2309.068" transform="translate(85.113 3357.46)" fill="none" stroke="#686868" stroke-width="1"/>
      <line id="Line_257" data-name="Line 257" x2="773.027" transform="translate(1621.154 441.587)" fill="none" stroke="#686868" stroke-width="2"/>
      <rect id="Rectangle_30055" data-name="Rectangle 30055" width="775" height="2870" transform="translate(1620.649 454.333)" fill="#d1d1d1"/>
      <line id="Line_276" data-name="Line 276" x2="702.934" transform="translate(1659.204 2630.495)" fill="none" stroke="#686868" stroke-width="1"/>
    </g>
  </g>
</svg>
