<svg xmlns="http://www.w3.org/2000/svg" width="28" height="28" viewBox="0 0 28 28">
  <g id="biotech-24px" transform="translate(0.25 0.25)">
    <g id="Group_17936" data-name="Group 17936">
      <rect id="Rectangle_30268" data-name="Rectangle 30268" width="28" height="28" transform="translate(-0.25 -0.25)" fill="none"/>
    </g>
    <g id="Group_17938" data-name="Group 17938" transform="translate(5.729 2.292)">
      <g id="Group_17937" data-name="Group 17937">
        <path id="Path_7482" data-name="Path 7482" d="M7.292,20.695A2.3,2.3,0,0,0,5,22.986H21.042a2.3,2.3,0,0,0-2.292-2.292H14.167V18.4H17.6A2.3,2.3,0,0,0,19.9,16.111H10.729A3.427,3.427,0,0,1,8.965,9.74a2.831,2.831,0,0,1-.527-1.65,2.955,2.955,0,0,1,.1-.71A5.729,5.729,0,0,0,10.729,18.4v2.292Z" transform="translate(-5 -1.215)" fill="#363636"/>
        <path id="Path_7483" data-name="Path 7483" d="M10.642,6.022a2.851,2.851,0,0,1,1.822,5l.676,1.856,1.077-.39.39,1.077,2.154-.779-.39-1.077,1.077-.39-3.14-8.628-1.077.39L12.842,2l-2.154.779.39,1.077L10,4.257Z" transform="translate(-4.271 -2)" fill="#363636"/>
        <circle id="Ellipse_92" data-name="Ellipse 92" cx="1.719" cy="1.719" r="1.719" transform="translate(4.583 5.156)" fill="#363636"/>
      </g>
    </g>
  </g>
</svg>
