<svg xmlns="http://www.w3.org/2000/svg" width="34.75" height="38.5" viewBox="0 0 34.75 38.5">
  <g id="orderables-icons-11" transform="translate(-8.114 -1.5)">
    <g id="Group_17895" data-name="Group 17895" transform="translate(8.114 1.5)">
      <path id="Path_7452" data-name="Path 7452" d="M43.449,11.715a3.9,3.9,0,0,0-2.986-1.425H36.522a9.427,9.427,0,0,0-17.78,0H14.786A3.921,3.921,0,0,0,11.8,11.715a4.979,4.979,0,0,0-1.091,4.032l3.441,22.145a4.307,4.307,0,0,0,4.093,3.85H37.007a4.307,4.307,0,0,0,4.093-3.85L44.54,15.747A4.979,4.979,0,0,0,43.449,11.715Zm-23.9.485a8.173,8.173,0,1,1,10.519,9.034h-.015c-.015,0-.03.015-.045.015a8.262,8.262,0,0,1-4.775,0c-.015,0-.03-.015-.045-.015h-.015A8.156,8.156,0,0,1,19.545,12.2ZM43.3,15.55,39.856,37.7a3.07,3.07,0,0,1-2.85,2.789H18.242a3.082,3.082,0,0,1-2.85-2.789L11.951,15.55a3.788,3.788,0,0,1,.8-3.016,2.707,2.707,0,0,1,2.031-.985h3.592a9.407,9.407,0,0,0,.455,5.29c.076.182.379.879.531,1.152a9.513,9.513,0,0,0,5,4.29c.212.076,1.091.349,1.213.364a9.186,9.186,0,0,0,4.062,0c.212-.045.985-.273,1.228-.364a9.457,9.457,0,0,0,5-4.29c.136-.288.455-.97.531-1.152a9.287,9.287,0,0,0,.455-5.29h3.592a2.707,2.707,0,0,1,2.031.985A3.7,3.7,0,0,1,43.3,15.55Z" transform="translate(-10.256 -3.621)" fill="#363636"/>
      <path id="Path_7453" data-name="Path 7453" d="M34.865,40H16.1a4.668,4.668,0,0,1-4.456-4.168L8.188,13.687A5.36,5.36,0,0,1,9.37,9.352,4.271,4.271,0,0,1,12.644,7.79h3.683a9.807,9.807,0,0,1,18.31,0h3.683A4.325,4.325,0,0,1,41.61,9.352a5.4,5.4,0,0,1,1.182,4.335L39.336,35.832A4.694,4.694,0,0,1,34.865,40ZM12.644,8.548a3.571,3.571,0,0,0-2.7,1.288,4.608,4.608,0,0,0-1.016,3.729L12.371,35.71a3.932,3.932,0,0,0,3.714,3.532H34.85a3.932,3.932,0,0,0,3.714-3.532L42,13.565a4.608,4.608,0,0,0-1.016-3.729h0a3.473,3.473,0,0,0-2.7-1.288H34.077l-.091-.258a9.052,9.052,0,0,0-17.067,0l-.045.258ZM34.88,38.742H16.07a3.43,3.43,0,0,1-3.2-3.122L9.431,13.49a4.169,4.169,0,0,1,.894-3.319,3.08,3.08,0,0,1,2.319-1.122h4.062l-.091.455a8.948,8.948,0,0,0,.44,5.078,11.3,11.3,0,0,0,.5,1.091,9.159,9.159,0,0,0,4.82,4.138c.212.076,1.031.318,1.137.349h.03a8.89,8.89,0,0,0,3.9,0c.2-.045.955-.258,1.167-.349a9.137,9.137,0,0,0,4.8-4.108c.136-.273.44-.94.515-1.122a8.948,8.948,0,0,0,.44-5.078l-.091-.455h4.047a3.087,3.087,0,0,1,2.334,1.122,4.226,4.226,0,0,1,.894,3.319l-3.441,22.13a3.447,3.447,0,0,1-3.229,3.122Zm-18.765-.758h18.75a2.68,2.68,0,0,0,2.486-2.44v-.03l3.441-22.145a3.375,3.375,0,0,0-.728-2.713,2.283,2.283,0,0,0-1.743-.849H35.2a9.634,9.634,0,0,1-.561,5.063v.015c-.076.167-.394.864-.546,1.167l-.015.015a9.838,9.838,0,0,1-5.214,4.456c-.258.091-1.046.333-1.273.379a9.64,9.64,0,0,1-4.214,0c-.227-.045-1.076-.3-1.273-.379a9.9,9.9,0,0,1-5.214-4.456,11.345,11.345,0,0,1-.561-1.2,9.962,9.962,0,0,1-.546-5.063H12.644a2.283,2.283,0,0,0-1.743.849,3.375,3.375,0,0,0-.728,2.713l3.456,22.175A2.668,2.668,0,0,0,16.115,37.984Zm9.367-18.113A8.248,8.248,0,0,1,23,19.492h0l-.061-.015a8.558,8.558,0,0,1-5.9-9.458h0A8.541,8.541,0,0,1,25.5,2.758h0a8.556,8.556,0,0,1,2.562,16.719L28,19.492h0A8.517,8.517,0,0,1,25.483,19.871ZM23.239,18.78a7.849,7.849,0,0,0,4.5,0,.7.7,0,0,1,.136-.045A7.8,7.8,0,0,0,25.5,3.5h0a7.769,7.769,0,0,0-7.715,6.624h0a7.765,7.765,0,0,0,5.335,8.609h.03C23.179,18.764,23.209,18.764,23.239,18.78Zm4.517,0Zm-4.547,0Z" transform="translate(-8.114 -1.5)" fill="#363636"/>
    </g>
    <g id="Group_17906" data-name="Group 17906" transform="translate(18.556 4.395)">
      <g id="Group_17896" data-name="Group 17896" transform="translate(6.306)">
        <path id="Path_7454" data-name="Path 7454" d="M119.221,22.495a.64.64,0,0,0,.637-.637v-.621a.64.64,0,0,0-.637-.637.628.628,0,0,0-.621.637v.621A.628.628,0,0,0,119.221,22.495Z" transform="translate(-118.6 -20.6)" fill="#363636"/>
      </g>
      <g id="Group_17897" data-name="Group 17897" transform="translate(3.139 0.842)">
        <path id="Path_7455" data-name="Path 7455" d="M98.119,27.648a.618.618,0,0,0,.546.318.637.637,0,0,0,.318-.091.623.623,0,0,0,.227-.864l-.318-.546a.639.639,0,0,0-.864-.227.609.609,0,0,0-.227.849Z" transform="translate(-97.711 -26.156)" fill="#363636"/>
      </g>
      <g id="Group_17898" data-name="Group 17898" transform="translate(0.857 3.149)">
        <path id="Path_7456" data-name="Path 7456" d="M82.965,42.548l.546.318a.631.631,0,0,0,.849-.227.639.639,0,0,0-.227-.864l-.546-.318a.631.631,0,0,0-.849.227A.639.639,0,0,0,82.965,42.548Z" transform="translate(-82.656 -41.377)" fill="#363636"/>
      </g>
      <g id="Group_17899" data-name="Group 17899" transform="translate(11.203 9.121)">
        <path id="Path_7457" data-name="Path 7457" d="M151.228,81.948l.546.318a.631.631,0,0,0,.849-.227.639.639,0,0,0-.227-.864l-.546-.318a.631.631,0,0,0-.849.227A.623.623,0,0,0,151.228,81.948Z" transform="translate(-150.911 -80.777)" fill="#363636"/>
      </g>
      <g id="Group_17900" data-name="Group 17900" transform="translate(0 6.29)">
        <path id="Path_7458" data-name="Path 7458" d="M77.637,63.358h.621a.64.64,0,0,0,.637-.637.628.628,0,0,0-.637-.621h-.621a.638.638,0,0,0-.637.621A.651.651,0,0,0,77.637,63.358Z" transform="translate(-77 -62.1)" fill="#363636"/>
      </g>
      <g id="Group_17901" data-name="Group 17901" transform="translate(11.959 6.305)">
        <path id="Path_7459" data-name="Path 7459" d="M155.9,62.818a.64.64,0,0,0,.637.637h.637a.629.629,0,0,0,0-1.258h-.637A.618.618,0,0,0,155.9,62.818Z" transform="translate(-155.9 -62.196)" fill="#363636"/>
      </g>
      <g id="Group_17902" data-name="Group 17902" transform="translate(0.849 9.121)">
        <path id="Path_7460" data-name="Path 7460" d="M83.464,80.856l-.546.318a.627.627,0,0,0,0,1.091.676.676,0,0,0,.637,0l.546-.318a.639.639,0,0,0,.227-.864A.654.654,0,0,0,83.464,80.856Z" transform="translate(-82.6 -80.777)" fill="#363636"/>
      </g>
      <g id="Group_17903" data-name="Group 17903" transform="translate(11.209 3.134)">
        <path id="Path_7461" data-name="Path 7461" d="M151.581,42.855a.637.637,0,0,0,.318-.091l.546-.318a.627.627,0,0,0,0-1.091.676.676,0,0,0-.637,0l-.546.333a.633.633,0,0,0-.288.712A.619.619,0,0,0,151.581,42.855Z" transform="translate(-150.952 -41.275)" fill="#363636"/>
      </g>
      <g id="Group_17904" data-name="Group 17904" transform="translate(9.133 0.834)">
        <path id="Path_7462" data-name="Path 7462" d="M137.565,27.828a.56.56,0,0,0,.318.091.618.618,0,0,0,.546-.318l.318-.546a.6.6,0,0,0,0-.637.627.627,0,0,0-1.091,0l-.318.546A.639.639,0,0,0,137.565,27.828Z" transform="translate(-137.256 -26.1)" fill="#363636"/>
      </g>
      <g id="Group_17905" data-name="Group 17905" transform="translate(4.411 3.153)">
        <path id="Path_7463" data-name="Path 7463" d="M106.1,50.206a.64.64,0,0,0,.637.637h3.774a.629.629,0,0,0,0-1.258h-1.258V42.021a.629.629,0,0,0-1.258,0V49.57h-1.258A.64.64,0,0,0,106.1,50.206Z" transform="translate(-106.1 -41.4)" fill="#363636"/>
      </g>
    </g>
  </g>
</svg>
