{
    "messages": [{
            "date": 1597604400,
            "medicines": [],
            "subjects": [{
                    "title": "FVC Warning Low",
                    "messages": [{
                        "user_id": 10,
                        "full_name": "Demo Patient",
                        "group_type": "Patient",
                        "avatar": null,
                        "subject_id": 27,
                        "title": "FVC Warning Low",
                        "message": "FVC Warning Low",
                        "message_id": 58,
                        "time": 1597644821
                    }, {
                        "user_id": 9,
                        "full_name": "Sadia Sandila",
                        "group_type": "Command Center",
                        "avatar": null,
                        "subject_id": 27,
                        "title": "FVC Warning Low",
                        "message": "Demo Patient Message Ultra Critical Result SOS Request\n",
                        "message_id": 59,
                        "time": 1597658189
                    }, {
                        "user_id": 11,
                        "full_name": "Demo Doctor",
                        "group_type": "Caregiver",
                        "avatar": null,
                        "subject_id": 27,
                        "title": "FVC Warning Low",
                        "message": "take reading again",
                        "message_id": 60,
                        "time": 1597658245
                    }, {
                        "user_id": 9,
                        "full_name": "Sadia Sandila",
                        "group_type": "Command Center",
                        "avatar": null,
                        "subject_id": 27,
                        "title": "FVC Warning Low",
                        "message": "Demo Patient Message Ultra Critical Result SOS Request\n",
                        "message_id": 62,
                        "time": 1597658303
                    }, {
                        "user_id": 9,
                        "full_name": "Sadia Sandila",
                        "group_type": "Command Center",
                        "avatar": null,
                        "subject_id": 27,
                        "title": "FVC Warning Low",
                        "message": "Subject Closed",
                        "message_id": 63,
                        "time": 1597658303
                    }]
                },
                {
                    "title": "Generic",
                    "messages": [{
                        "user_id": 10,
                        "full_name": "Demo Patient",
                        "group_type": "Patient",
                        "avatar": null,
                        "subject_id": 28,
                        "title": "Generic",
                        "message": "okay, on it",
                        "message_id": 61,
                        "time": 1597658284
                    }]
                }
            ]
        },
        {
            "date": 1597863600,
            "medicines": [{
                "medicine_id": 32,
                "medicine_name": "AMARYL ",
                "strength": "2 MG",
                "type": "update",
                "time": "2 MG"
            }],
            "subjects": []
        }
    ],

    "medicine_history": [{
        "date": 1586199600,
        "medicines": [{
            "medicine_id": 1,
            "medicine_name": "Panadol",
            "strength": "250mg",
            "type": "update",
            "time": "250mg"
        }, {
            "medicine_id": 42,
            "strength": "100 MCG",
            "medicine_name": "EUTHYROX ",
            "type": "delete",
            "time": 1586246403
        }, {
            "medicine_id": 48,
            "strength": "750 MG",
            "medicine_name": "GLUCOPHAGE XR",
            "type": "add",
            "time": 1586246603
        }]
    }],

    "patient_info": {
        "full_name": "Demo Patient",
        "patient_id": 3,
        "user_id": 10,
        "hospital_no": "CHI-HN-0003",
        "title_id": 5,
        "image": null,
        "first_name": "Demo",
        "last_name": "Patient",
        "father_name": "Demo Father",
        "gender": "Female",
        "birth_date": 7585200,
        "system_language_id": "en-US",
        "height": 160,
        "weight": 60,
        "episode_status": "On-boarded",
        "date_added": 1585583232,
        "date_updated": 1597645692,
        "is_deleted": false,
        "email": "sadia@cognitivehealthintl.com",
        "username": "demop",
        "password": "<<<encrypted>>>",
        "group_id": 2,
        "group_type": "Patient",
        "site_id": "DDC",
        "rough_age": 50,
        "age": "50 Years",
        "episode_id": 3,
        "onboard_date": 1585583642,
        "episode_active": true,
        "avg_score": 0
    },

    "doctor_info": [{
        "name": "Faisal Nawaz"
    }],

    "diagnoses": ["Asthma", "Hypertension"],

    "recent_result": [{
        "value": 37,
        "date": 1585641089,
        "title": "Temperature",
        "unit": "C",
        "key": "TEMP",
        "icon": "/assets/images/progress-report/temp.svg"
    }, {
        "value": 96,
        "date": 1585641089,
        "title": "Pulse",
        "unit": "bpm",
        "key": "Pulse",
        "icon": "/assets/images/progress-report/pulse.svg"
    }, {
        "value": "110/71",
        "unit": "mmHg",
        "date": 1585631250,
        "title": "Blood Pressure",
        "key": "BP",
        "icon": "/assets/images/progress-report/bp.svg"
    }],

    "allergies": ["Mold Allergy"],

    "compliance_data": {
        "Medicine": {
            "diff": 999,
            "current": 999,
            "prev": 999
        },
        "Vital": {
            "diff": 999,
            "current": 999,
            "prev": 999
        }
    },

    "active_medications": [{
        "episode_medicine_id": 15,
        "medicine.medicine_name": "AMARYL ",
        "frequency": "Daily",
        "is_verified": true,
        "is_custom_schedule": false,
        "remaining": 6,
        "advance_schedules": "[{\"start_date\": 1597910305, \"repeat_type\": \"Repeat\", \"repeat_cycle\": \"Day\", \"repeat_unit\": 1, \"frequency\": \"Daily\", \"days\": [{\"type\": \"Daily\", \"day\": \"Day\", \"times\": [{\"time\": 29700, \"dosage\": 1, \"index\": 53, \"h_index\": 13, \"m_index\": 1}, {\"time\": 54900, \"dosage\": 1, \"index\": 81, \"h_index\": 20, \"m_index\": 1}]}], \"dosage_type\": \"Cumulative\", \"dosage\": 1, \"repeat_cycle_custom\": \"Day\", \"repeat_unit_custom\": 1, \"is_advance\": false, \"end_type\": \"Days\", \"end_value\": 3}]",
        "is_advance_schedule": true,
        "end_date": null
    }]
}