{
    "sections": [{
            "section_name": "Diabetes Type 2 - Oral Medication Template",
            "description_title": "D.M Type 2",
            "description": "--",
            "plan_title": null,
            "plan": null,
            "medicines": [{
                    "prescription_medicine_id": 251,
                    "medicine_id": 31,
                    "medicine_name": "DIAMICRON MR",
                    "generic_name": "GLICLAZIDE ER ",
                    "strength": "60 MG",
                    "unit_id": 1,
                    "unit_name": "Tablet(s)",
                    "no_of_days": 5,
                    "dosage": "[{\"value\":\"1\"},{\"value\":\"0\"},{\"value\":\"1\"}]",
                    "interval": null,
                    "route_id": 1,
                    "instructions": "Before Meal"
                },
                {
                    "prescription_medicine_id": 252,
                    "medicine_id": 87,
                    "medicine_name": "Tagip Met XR",
                    "generic_name": "Tagip Met XR",
                    "strength": "50/1000mg",
                    "unit_id": 1,
                    "unit_name": "Tablet(s)",
                    "no_of_days": 5,
                    "dosage": "[{\"value\":\"0\"},{\"value\":\"0\"},{\"value\":\"1\"}]",
                    "interval": null,
                    "route_id": 1,
                    "instructions": "After Meal"
                },
                {
                    "prescription_medicine_id": 253,
                    "medicine_id": 88,
                    "medicine_name": "Diampa M",
                    "generic_name": "Diampa M",
                    "strength": "12.5/1000 mg",
                    "unit_id": 1,
                    "unit_name": "Tablet(s)",
                    "no_of_days": 5,
                    "dosage": "[{\"value\":\"1\"},{\"value\":\"0\"},{\"value\":\"0\"}]",
                    "interval": null,
                    "route_id": 1,
                    "instructions": "After Meal"
                }
            ]
        },
        {
            "section_name": "Doctor's Note",
            "description_title": "Take medicines regularly",
            "description": "Some useful instructions for patient.",
            "plan_title": null,
            "plan": null,
            "medicines": []
        }
    ],
    "bg_monitoring_data": "{\"readings\":{\"weight\":64,\"height_in\":178,\"bp_systolic\":129,\"bp_diastolic\":85,\"pulse\":75,\"temperature\":37.2},\"monitoring_data\":[{\"title\":1,\"value\":[{\"selected\":true},{\"selected\":false},{\"selected\":true},{\"selected\":false},{\"selected\":true},{\"selected\":false}]},{\"title\":2,\"value\":[{\"selected\":false},{\"selected\":true},{\"selected\":false},{\"selected\":true},{\"selected\":false},{\"selected\":true}]},{\"title\":3,\"value\":[{\"selected\":true},{\"selected\":false},{\"selected\":true},{\"selected\":false},{\"selected\":true},{\"selected\":false}]},{\"title\":4,\"value\":[{\"selected\":false},{\"selected\":true},{\"selected\":false},{\"selected\":true},{\"selected\":false},{\"selected\":true}]},{\"title\":5,\"value\":[{\"selected\":true},{\"selected\":false},{\"selected\":true},{\"selected\":false},{\"selected\":true},{\"selected\":false}]},{\"title\":6,\"value\":[{\"selected\":false},{\"selected\":true},{\"selected\":false},{\"selected\":true},{\"selected\":false},{\"selected\":true}]},{\"title\":7,\"value\":[{\"selected\":true},{\"selected\":false},{\"selected\":true},{\"selected\":false},{\"selected\":true},{\"selected\":false}]},{\"title\":8,\"value\":[{\"selected\":false},{\"selected\":true},{\"selected\":false},{\"selected\":true},{\"selected\":false},{\"selected\":true}]},{\"title\":9,\"value\":[{\"selected\":true},{\"selected\":false},{\"selected\":true},{\"selected\":false},{\"selected\":true},{\"selected\":false}]},{\"title\":10,\"value\":[{\"selected\":false},{\"selected\":true},{\"selected\":false},{\"selected\":true},{\"selected\":false},{\"selected\":true}]},{\"title\":11,\"value\":[{\"selected\":true},{\"selected\":false},{\"selected\":true},{\"selected\":false},{\"selected\":true},{\"selected\":false}]},{\"title\":12,\"value\":[{\"selected\":false},{\"selected\":true},{\"selected\":false},{\"selected\":true},{\"selected\":false},{\"selected\":true}]},{\"title\":13,\"value\":[{\"selected\":true},{\"selected\":false},{\"selected\":true},{\"selected\":false},{\"selected\":true},{\"selected\":false}]},{\"title\":14,\"value\":[{\"selected\":false},{\"selected\":true},{\"selected\":false},{\"selected\":true},{\"selected\":false},{\"selected\":true}]},{\"title\":15,\"value\":[{\"selected\":true},{\"selected\":false},{\"selected\":true},{\"selected\":false},{\"selected\":true},{\"selected\":false}]}]}",
    "lab_tests": [{
            "id": 1,
            "name": "25-Hydroxy Vitamin-D",
            "checked": true
        },
        {
            "id": 2,
            "name": "HBV BY PCR (Viral Load / Quantitation)",
            "checked": false
        },
        {
            "id": 3,
            "name": "HBV BY PCR (Qualitative)",
            "checked": true
        },
        {
            "id": 4,
            "name": "ANTI HCV",
            "checked": false
        },
        {
            "id": 5,
            "name": "HCV Qualitative PCR",
            "checked": false
        },
        {
            "id": 6,
            "name": "Blood C/E (Complete, CBC)",
            "checked": false
        },
        {
            "id": 7,
            "name": "Iron / Fe Level (Serum)",
            "checked": true
        },
        {
            "id": 8,
            "name": "CHOLESTEROL / HDL CHOLESTEROL RATIO",
            "checked": false
        },
        {
            "id": 9,
            "name": "Lipid Profile",
            "checked": true
        },
        {
            "id": 10,
            "name": "HbA1C (Glycosylated Hemoglobin)",
            "checked": true
        },
        {
            "id": 11,
            "name": "Liver Function Test With GGT (LFT)",
            "checked": true
        },
        {
            "id": 12,
            "name": "Urine C/E (Complete Analysis)",
            "checked": false
        },
        {
            "id": 13,
            "name": "CBC",
            "checked": true
        },
        {
            "id": 14,
            "name": "Troponinc-I",
            "checked": false
        },
        {
            "id": 15,
            "name": "LFT",
            "checked": false
        },
        {
            "id": 16,
            "name": "USG Liver",
            "checked": false
        },
        {
            "id": 17,
            "name": "TSH",
            "checked": false
        },
        {
            "id": 18,
            "name": "T4",
            "checked": false
        },
        {
            "id": 19,
            "name": "X-Ray",
            "checked": false
        },
        {
            "id": 20,
            "name": "ECG",
            "checked": true
        },
        {
            "id": 21,
            "name": "CBC",
            "checked": false
        },
        {
            "id": 22,
            "name": "S/E",
            "checked": false
        },
        {
            "id": 23,
            "name": "ANTI - PCR",
            "checked": false
        }
    ]
}