<svg xmlns="http://www.w3.org/2000/svg" width="18.492" height="16.473" viewBox="0 0 18.492 16.473">
  <g id="calendar" transform="translate(0 -27.95)">
    <path id="Path_7480" data-name="Path 7480" d="M16.68,29h-.248v-.511a.542.542,0,0,0-1.084,0V29H13.76v-.511a.542.542,0,0,0-1.084,0V29H11.088v-.511a.542.542,0,0,0-1.084,0V29H8.488v-.511a.542.542,0,0,0-1.084,0V29H5.816v-.511a.542.542,0,0,0-1.084,0V29H3.144v-.511a.542.542,0,0,0-1.084,0V29H1.813A1.815,1.815,0,0,0,0,30.815v11.8a1.815,1.815,0,0,0,1.813,1.813H16.68a1.815,1.815,0,0,0,1.813-1.813v-11.8A1.815,1.815,0,0,0,16.68,29ZM1.813,30.086H2.06V30.6a.542.542,0,1,0,1.084,0v-.511H4.732V30.6a.542.542,0,1,0,1.084,0v-.511H7.4V30.6a.542.542,0,1,0,1.084,0v-.511H10V30.6a.542.542,0,1,0,1.084,0v-.511h1.588V30.6a.542.542,0,1,0,1.084,0v-.511h1.588V30.6a.542.542,0,0,0,1.084,0v-.511h.248a.73.73,0,0,1,.729.729v1.077H1.084V30.815a.73.73,0,0,1,.729-.729ZM16.68,43.34H1.813a.73.73,0,0,1-.729-.729V32.975H17.409v9.635A.73.73,0,0,1,16.68,43.34Z" fill="#363636"/>
    <path id="Path_7481" data-name="Path 7481" d="M155.071,204.756h-1.743v-1.743a.542.542,0,0,0-.542-.542h-2.162a.542.542,0,0,0-.542.542v1.743h-1.744a.542.542,0,0,0-.542.542v2.162a.542.542,0,0,0,.542.542h1.744v1.743a.542.542,0,0,0,.542.542h2.162a.542.542,0,0,0,.542-.542V208h1.743a.542.542,0,0,0,.542-.542V205.3A.542.542,0,0,0,155.071,204.756Zm-.542,2.162h-1.743a.542.542,0,0,0-.542.542V209.2h-1.079V207.46a.542.542,0,0,0-.542-.542h-1.744V205.84h1.744a.542.542,0,0,0,.542-.542v-1.743h1.079V205.3a.542.542,0,0,0,.542.542h1.743Z" transform="translate(-142.459 -168.218)" fill="#363636"/>
  </g>
</svg>
