<svg xmlns="http://www.w3.org/2000/svg" width="20.723" height="20.712" viewBox="0 0 20.723 20.712">
  <g id="Group_18407" data-name="Group 18407" transform="translate(-233.575 -233.418)">
    <g id="Group_18091" data-name="Group 18091" transform="translate(237.626 237.455)">
      <g id="Group_18090" data-name="Group 18090" transform="translate(0 0)">
        <path id="Path_7686" data-name="Path 7686" d="M278.2,263.418l-14.52,14.534a10.359,10.359,0,0,0,14.52-14.534Z" transform="translate(-263.675 -263.418)" fill="#363636"/>
      </g>
    </g>
    <g id="Group_18093" data-name="Group 18093" transform="translate(233.575 233.418)">
      <g id="Group_18092" data-name="Group 18092" transform="translate(0 0)">
        <path id="Path_7687" data-name="Path 7687" d="M243.937,233.418a10.366,10.366,0,0,0-8.222,16.673l14.52-14.52A10.248,10.248,0,0,0,243.937,233.418Z" transform="translate(-233.575 -233.418)" fill="#363636"/>
      </g>
    </g>
  </g>
</svg>
