<svg xmlns="http://www.w3.org/2000/svg" width="36.812" height="39.567" viewBox="0 0 36.812 39.567">
  <path id="Medication" d="M338.3,346.816c2.389-3.5,4.745-6.951,7.1-10.416-.1-.151-.194-.291-.28-.43-2.507-3.766-5.025-7.522-7.522-11.3a2.091,2.091,0,0,0-1.765-1.108c-.549-.011-1.1,0-1.668,0v11.3H326v-27.6h.344c4.509,0,9.028-.011,13.537,0a26,26,0,0,1,5.24.452,6.578,6.578,0,0,1,5.23,5.811,8.2,8.2,0,0,1-.743,5.025,7.53,7.53,0,0,1-5.025,3.82c-.28.075-.56.151-.9.237,2.507,3.228,4.347,6.865,6.9,10.061.086-.129.161-.226.237-.344,1.119-1.722,2.238-3.454,3.379-5.176a.556.556,0,0,1,.387-.237c2.507-.011,5.025-.011,7.532-.011.054,0,.108.011.2.011-.1.14-.161.247-.237.355q-3.1,4.422-6.22,8.834a.39.39,0,0,0,0,.549q3.357,4.875,6.7,9.76c.075.108.151.215.247.366-.14.011-.226.021-.323.021-2.615,0-5.219,0-7.834.011a.457.457,0,0,1-.463-.291c-1.13-2.023-2.27-4.035-3.411-6.058-.054-.1-.108-.194-.194-.334-.086.118-.151.215-.215.312-1.356,2.034-2.7,4.067-4.057,6.1-.108.151-.194.269-.42.269q-3.7-.016-7.392-.011C338.461,346.827,338.418,346.827,338.3,346.816Zm-4.111-34.2v5.94a.579.579,0,0,0,.108.032c1.42-.022,2.83.011,4.24-.086a7.734,7.734,0,0,0,2.2-.495,2.662,2.662,0,0,0,1.5-2.959,2.511,2.511,0,0,0-2.2-2.3,34.64,34.64,0,0,0-5.789-.151C334.221,312.587,334.21,312.6,334.189,312.619Z" transform="translate(-326 -307.255)" fill="#363636"/>
</svg>
