<svg xmlns="http://www.w3.org/2000/svg" width="19.061" height="19.063" viewBox="0 0 19.061 19.063">
  <g id="pill" transform="translate(0 -0.23)">
    <g id="Group_18087" data-name="Group 18087" transform="translate(6.714 0.23)">
      <g id="Group_18086" data-name="Group 18086" transform="translate(0 0)">
        <path id="Path_7684" data-name="Path 7684" d="M124.077,1.578a4.6,4.6,0,0,0-6.5,0l-4.5,4.5,6.507,6.507,4.495-4.506A4.6,4.6,0,0,0,124.077,1.578Zm-4.613,2.66-2.048,2.019-.006.006a.592.592,0,1,1-.825-.849l2.054-2.019.006-.006a.59.59,0,1,1,.819.849Z" transform="translate(-113.075 -0.23)" fill="#363636"/>
      </g>
    </g>
    <g id="Group_18089" data-name="Group 18089" transform="translate(0 6.915)">
      <g id="Group_18088" data-name="Group 18088" transform="translate(0)">
        <path id="Path_7685" data-name="Path 7685" d="M5.871,112.818l-4.53,4.536a4.61,4.61,0,0,0,6.537,6.5l4.506-4.524Z" transform="translate(0 -112.818)" fill="#363636"/>
      </g>
    </g>
  </g>
</svg>
