<svg id="search-24px" xmlns="http://www.w3.org/2000/svg" width="20" height="20" viewBox="0 0 20 20">
  <path id="Path_7535" data-name="Path 7535" d="M0,0H20V20H0Z" fill="none"/>
  <path id="Path_7536" data-name="Path 7536" d="M13.417,12.167h-.658l-.233-.225a5.425,5.425,0,1,0-.583.583l.225.233v.658l4.167,4.158,1.242-1.242Zm-5,0a3.75,3.75,0,1,1,3.75-3.75A3.745,3.745,0,0,1,8.417,12.167Z" transform="translate(-0.5 -0.5)" fill="#363636"/>
</svg>
