{
    "clinic_info": {

    "receipt": "2345",
    "date": "15th May 2020",
    "invoice": "33538",
    "address": "Al Shifa Memorial Hospital\nDepartment of Sciences\nI-8 Islamabad, Pakistan",
    "phone": "051 3157895 Ext.3154, 1123",
    "web": ["www.alshifa.com", "www.cognitivehealthintl.com"],
    "email": ["info@alshifa.com","dr.arifrasheed@cognitivehealthintl.com"]
    },
    
    "patient_info": {
      "full_name": "Mr.Sarfaraz Arshad",
      "details": ["+923450513438","MR No: 123456"]
    },
    "services":[
        {
            "id" : "01",
            "service" : "Gold Package",
            "quantity" : 1,
            "tax" : 5,
            "discount" : 4000,
            "unit_price" : 75000,
            "sub_total" : 71000
        },
        {
            "id" : "02",
            "service" : "Nurse Visit",
            "quantity" : 3,
            "tax" : 7,
            "discount" : 500,
            "unit_price" : 2500,
            "sub_total" : 7000
        },
        {
            "id" : "03",
            "service" : "GP Tele-Consultation",
            "quantity" : 1,
            "tax" : 2.5,
            "discount" : 2500,
            "unit_price" : 5000,
            "sub_total" : 2500
        }
    ],
    "payment_mode":"Cash | Bank Transfer",
    "transcation_id": null,
    "discount":2500,
    "tax":5000,
    "sub_total":2500,
    "grand_total":71500
}